


{
 "resultCount":20,
 "results": [
{"wrapperType":"track", "kind":"tv-episode", "artistId":269570329, "collectionId":309366086, "trackId":309564409, "artistName":"Californication", "collectionName":"Californication, Season 2", "trackName":"In Utero", "collectionCensoredName":"Californication, Season 2", "trackCensoredName":"In Utero", "artistViewUrl":"https://itunes.apple.com/us/tv-show/californication/id269570329?uo=4", "collectionViewUrl":"https://itunes.apple.com/us/tv-season/in-utero/id309366086?i=309564409&uo=4", "trackViewUrl":"https://itunes.apple.com/us/tv-season/in-utero/id309366086?i=309564409&uo=4",
"previewUrl":"https://video-ssl.itunes.apple.com/itunes-assets/Video127/v4/55/9c/c8/559cc8bf-4071-4c9a-0181-785b60cba46a/mzvf_5202598431151026236.640x480.h264lc.U.p.m4v", "artworkUrl30":"https://is1-ssl.mzstatic.com/image/thumb/Music3/v4/69/13/45/69134598-4435-7023-e96e-875fc9374744/source/30x30bb.jpg", "artworkUrl60":"https://is1-ssl.mzstatic.com/image/thumb/Music3/v4/69/13/45/69134598-4435-7023-e96e-875fc9374744/source/60x60bb.jpg", "artworkUrl100":"https://is1-ssl.mzstatic.com/image/thumb/Music3/v4/69/13/45/69134598-4435-7023-e96e-875fc9374744/source/100x100bb.jpg", "collectionPrice":19.99, "trackPrice":1.99, "collectionHdPrice":24.99000, "trackHdPrice":2.99000, "releaseDate":"2008-11-30T08:00:00Z", "collectionExplicitness":"notExplicit", "trackExplicitness":"notExplicit", "discCount":1, "discNumber":1, "trackCount":12, "trackNumber":10, "trackTimeMillis":1704703, "country":"USA", "currency":"USD", "primaryGenreName":"Comedy", "contentAdvisoryRating":"TV-MA",
"shortDescription":"Hank nervously awaits medical test results while reflecting on the early days of his romance with Karen, which coincided with a famous grunge rocker's overdose.",
"longDescription":"While Hank nervously awaits the results of his biopsy, he reflects on his relationship with Karen, and we flashback to the beginning of their stormy union - an event that coincides with the tragic overdose of a famous grunge rocker. Meanwhile, Daisy tells Charlie that she's moving out, but Charlie doesn't want to let her go."},
{"wrapperType":"track", "kind":"song", "artistId":112018, "collectionId":1440858699, "trackId":1440859361, "artistName":"Nirvana", "collectionName":"In Utero (20th Anniversary) [Remastered]", "trackName":"Dumb", "collectionCensoredName":"In Utero (20th Anniversary) [Remastered]", "trackCensoredName":"Dumb", "artistViewUrl":"https://music.apple.com/us/artist/nirvana/112018?uo=4", "collectionViewUrl":"https://music.apple.com/us/album/dumb/1440858699?i=1440859361&uo=4", "trackViewUrl":"https://music.apple.com/us/album/dumb/1440858699?i=1440859361&uo=4",
"previewUrl":"https://audio-ssl.itunes.apple.com/itunes-assets/AudioPreview128/v4/1d/4a/47/1d4a473d-0e1a-8d0c-7262-ee077ecf06d0/mzaf_5826339530962154107.plus.aac.p.m4a", "artworkUrl30":"https://is5-ssl.mzstatic.com/image/thumb/Music128/v4/ce/2a/e6/ce2ae6a7-d38c-0c95-7f81-2e958c27daa4/source/30x30bb.jpg", "artworkUrl60":"https://is5-ssl.mzstatic.com/image/thumb/Music128/v4/ce/2a/e6/ce2ae6a7-d38c-0c95-7f81-2e958c27daa4/source/60x60bb.jpg", "artworkUrl100":"https://is5-ssl.mzstatic.com/image/thumb/Music128/v4/ce/2a/e6/ce2ae6a7-d38c-0c95-7f81-2e958c27daa4/source/100x100bb.jpg", "collectionPrice":9.99, "trackPrice":1.29, "releaseDate":"1993-09-21T12:00:00Z", "collectionExplicitness":"notExplicit", "trackExplicitness":"notExplicit", "discCount":1, "discNumber":1, "trackCount":12, "trackNumber":6, "trackTimeMillis":151880, "country":"USA", "currency":"USD", "primaryGenreName":"Alternative", "isStreamable":true},
{"wrapperType":"track", "kind":"song", "artistId":112018, "collectionId":1440858699, "trackId":1440859114, "artistName":"Nirvana", "collectionName":"In Utero (20th Anniversary) [Remastered]", "trackName":"Rape Me", "collectionCensoredName":"In Utero (20th Anniversary) [Remastered]", "trackCensoredName":"Rape Me", "artistViewUrl":"https://music.apple.com/us/artist/nirvana/112018?uo=4", "collectionViewUrl":"https://music.apple.com/us/album/rape-me/1440858699?i=1440859114&uo=4", "trackViewUrl":"https://music.apple.com/us/album/rape-me/1440858699?i=1440859114&uo=4",
"previewUrl":"https://audio-ssl.itunes.apple.com/itunes-assets/AudioPreview128/v4/ba/22/40/ba224008-db9f-63cb-4409-417bde8f0f38/mzaf_4738907210808937225.plus.aac.p.m4a", "artworkUrl30":"https://is5-ssl.mzstatic.com/image/thumb/Music128/v4/ce/2a/e6/ce2ae6a7-d38c-0c95-7f81-2e958c27daa4/source/30x30bb.jpg", "artworkUrl60":"https://is5-ssl.mzstatic.com/image/thumb/Music128/v4/ce/2a/e6/ce2ae6a7-d38c-0c95-7f81-2e958c27daa4/source/60x60bb.jpg", "artworkUrl100":"https://is5-ssl.mzstatic.com/image/thumb/Music128/v4/ce/2a/e6/ce2ae6a7-d38c-0c95-7f81-2e958c27daa4/source/100x100bb.jpg", "collectionPrice":9.99, "trackPrice":1.29, "releaseDate":"1993-09-21T12:00:00Z", "collectionExplicitness":"notExplicit", "trackExplicitness":"notExplicit", "discCount":1, "discNumber":1, "trackCount":12, "trackNumber":4, "trackTimeMillis":170000, "country":"USA", "currency":"USD", "primaryGenreName":"Alternative", "isStreamable":true},
{"wrapperType":"track", "kind":"song", "artistId":112018, "collectionId":1440858699, "trackId":1440859107, "artistName":"Nirvana", "collectionName":"In Utero (20th Anniversary) [Remastered]", "trackName":"Heart-Shaped Box", "collectionCensoredName":"In Utero (20th Anniversary) [Remastered]", "trackCensoredName":"Heart-Shaped Box", "artistViewUrl":"https://music.apple.com/us/artist/nirvana/112018?uo=4", "collectionViewUrl":"https://music.apple.com/us/album/heart-shaped-box/1440858699?i=1440859107&uo=4", "trackViewUrl":"https://music.apple.com/us/album/heart-shaped-box/1440858699?i=1440859107&uo=4",
"previewUrl":"https://audio-ssl.itunes.apple.com/itunes-assets/AudioPreview118/v4/b0/8a/65/b08a650b-256b-fa77-6241-045695e539ea/mzaf_6860803777625206310.plus.aac.p.m4a", "artworkUrl30":"https://is5-ssl.mzstatic.com/image/thumb/Music128/v4/ce/2a/e6/ce2ae6a7-d38c-0c95-7f81-2e958c27daa4/source/30x30bb.jpg", "artworkUrl60":"https://is5-ssl.mzstatic.com/image/thumb/Music128/v4/ce/2a/e6/ce2ae6a7-d38c-0c95-7f81-2e958c27daa4/source/60x60bb.jpg", "artworkUrl100":"https://is5-ssl.mzstatic.com/image/thumb/Music128/v4/ce/2a/e6/ce2ae6a7-d38c-0c95-7f81-2e958c27daa4/source/100x100bb.jpg", "collectionPrice":9.99, "trackPrice":1.29, "releaseDate":"1993-08-30T12:00:00Z", "collectionExplicitness":"notExplicit", "trackExplicitness":"notExplicit", "discCount":1, "discNumber":1, "trackCount":12, "trackNumber":3, "trackTimeMillis":281093, "country":"USA", "currency":"USD", "primaryGenreName":"Alternative", "isStreamable":true},
{"wrapperType":"track", "kind":"song", "artistId":112018, "collectionId":1440858699, "trackId":1440859612, "artistName":"Nirvana", "collectionName":"In Utero (20th Anniversary) [Remastered]", "trackName":"All Apologies", "collectionCensoredName":"In Utero (20th Anniversary) [Remastered]", "trackCensoredName":"All Apologies", "artistViewUrl":"https://music.apple.com/us/artist/nirvana/112018?uo=4", "collectionViewUrl":"https://music.apple.com/us/album/all-apologies/1440858699?i=1440859612&uo=4", "trackViewUrl":"https://music.apple.com/us/album/all-apologies/1440858699?i=1440859612&uo=4",
"previewUrl":"https://audio-ssl.itunes.apple.com/itunes-assets/AudioPreview118/v4/42/30/db/4230db75-3779-28b1-d4f8-97bdcb161566/mzaf_6225289440297430500.plus.aac.p.m4a", "artworkUrl30":"https://is5-ssl.mzstatic.com/image/thumb/Music128/v4/ce/2a/e6/ce2ae6a7-d38c-0c95-7f81-2e958c27daa4/source/30x30bb.jpg", "artworkUrl60":"https://is5-ssl.mzstatic.com/image/thumb/Music128/v4/ce/2a/e6/ce2ae6a7-d38c-0c95-7f81-2e958c27daa4/source/60x60bb.jpg", "artworkUrl100":"https://is5-ssl.mzstatic.com/image/thumb/Music128/v4/ce/2a/e6/ce2ae6a7-d38c-0c95-7f81-2e958c27daa4/source/100x100bb.jpg", "collectionPrice":9.99, "trackPrice":1.29, "releaseDate":"1993-09-21T12:00:00Z", "collectionExplicitness":"notExplicit", "trackExplicitness":"notExplicit", "discCount":1, "discNumber":1, "trackCount":12, "trackNumber":12, "trackTimeMillis":236320, "country":"USA", "currency":"USD", "primaryGenreName":"Alternative", "isStreamable":true},
{"wrapperType":"track", "kind":"song", "artistId":251685976, "collectionId":641284924, "trackId":641285040, "artistName":"Days Between Stations", "collectionName":"In Extremis", "trackName":"In Utero", "collectionCensoredName":"In Extremis", "trackCensoredName":"In Utero", "artistViewUrl":"https://music.apple.com/us/artist/days-between-stations/251685976?uo=4", "collectionViewUrl":"https://music.apple.com/us/album/in-utero/641284924?i=641285040&uo=4", "trackViewUrl":"https://music.apple.com/us/album/in-utero/641284924?i=641285040&uo=4", "previewUrl":"https://audio-ssl.itunes.apple.com/itunes-assets/Music2/v4/5c/e7/83/5ce78327-d9ad-0d11-0969-f9a3e03cdb7c/mzaf_626411364880329763.plus.aac.p.m4a", "artworkUrl30":"https://is2-ssl.mzstatic.com/image/thumb/Music/v4/2c/9c/36/2c9c36b6-b9f0-df85-3683-52de93b5e5f9/source/30x30bb.jpg", "artworkUrl60":"https://is2-ssl.mzstatic.com/image/thumb/Music/v4/2c/9c/36/2c9c36b6-b9f0-df85-3683-52de93b5e5f9/source/60x60bb.jpg", "artworkUrl100":"https://is2-ssl.mzstatic.com/image/thumb/Music/v4/2c/9c/36/2c9c36b6-b9f0-df85-3683-52de93b5e5f9/source/100x100bb.jpg", "collectionPrice":9.99, "trackPrice":0.99, "releaseDate":"2013-05-15T12:00:00Z", "collectionExplicitness":"notExplicit", "trackExplicitness":"notExplicit", "discCount":1, "discNumber":1, "trackCount":8, "trackNumber":2, "trackTimeMillis":310293, "country":"USA", "currency":"USD", "primaryGenreName":"Rock", "isStreamable":true},
{"wrapperType":"track", "kind":"song", "artistId":112018, "collectionId":1440858699, "trackId":1440859494, "artistName":"Nirvana", "collectionName":"In Utero (20th Anniversary) [Remastered]", "trackName":"Pennyroyal Tea", "collectionCensoredName":"In Utero (20th Anniversary) [Remastered]", "trackCensoredName":"Pennyroyal Tea", "artistViewUrl":"https://music.apple.com/us/artist/nirvana/112018?uo=4", "collectionViewUrl":"https://music.apple.com/us/album/pennyroyal-tea/1440858699?i=1440859494&uo=4", "trackViewUrl":"https://music.apple.com/us/album/pennyroyal-tea/1440858699?i=1440859494&uo=4",
"previewUrl":"https://audio-ssl.itunes.apple.com/itunes-assets/AudioPreview118/v4/23/4e/85/234e85f7-6084-da12-88b1-96d3b3e6a06a/mzaf_4311812230900806547.plus.aac.p.m4a", "artworkUrl30":"https://is5-ssl.mzstatic.com/image/thumb/Music128/v4/ce/2a/e6/ce2ae6a7-d38c-0c95-7f81-2e958c27daa4/source/30x30bb.jpg", "artworkUrl60":"https://is5-ssl.mzstatic.com/image/thumb/Music128/v4/ce/2a/e6/ce2ae6a7-d38c-0c95-7f81-2e958c27daa4/source/60x60bb.jpg", "artworkUrl100":"https://is5-ssl.mzstatic.com/image/thumb/Music128/v4/ce/2a/e6/ce2ae6a7-d38c-0c95-7f81-2e958c27daa4/source/100x100bb.jpg", "collectionPrice":9.99, "trackPrice":1.29, "releaseDate":"1993-09-21T12:00:00Z", "collectionExplicitness":"notExplicit", "trackExplicitness":"notExplicit", "discCount":1, "discNumber":1, "trackCount":12, "trackNumber":9, "trackTimeMillis":218827, "country":"USA", "currency":"USD", "primaryGenreName":"Alternative", "isStreamable":true},
{"wrapperType":"track", "kind":"song", "artistId":112018, "collectionId":1440858699, "trackId":1440859504, "artistName":"Nirvana", "collectionName":"In Utero (20th Anniversary) [Remastered]", "trackName":"Radio Friendly Unit Shifter", "collectionCensoredName":"In Utero (20th Anniversary) [Remastered]", "trackCensoredName":"Radio Friendly Unit Shifter", "artistViewUrl":"https://music.apple.com/us/artist/nirvana/112018?uo=4", "collectionViewUrl":"https://music.apple.com/us/album/radio-friendly-unit-shifter/1440858699?i=1440859504&uo=4", "trackViewUrl":"https://music.apple.com/us/album/radio-friendly-unit-shifter/1440858699?i=1440859504&uo=4",
"previewUrl":"https://audio-ssl.itunes.apple.com/itunes-assets/AudioPreview118/v4/70/c2/3b/70c23be2-5f96-656d-98ed-92c5aa1f7877/mzaf_1563520534112621215.plus.aac.p.m4a", "artworkUrl30":"https://is5-ssl.mzstatic.com/image/thumb/Music128/v4/ce/2a/e6/ce2ae6a7-d38c-0c95-7f81-2e958c27daa4/source/30x30bb.jpg", "artworkUrl60":"https://is5-ssl.mzstatic.com/image/thumb/Music128/v4/ce/2a/e6/ce2ae6a7-d38c-0c95-7f81-2e958c27daa4/source/60x60bb.jpg", "artworkUrl100":"https://is5-ssl.mzstatic.com/image/thumb/Music128/v4/ce/2a/e6/ce2ae6a7-d38c-0c95-7f81-2e958c27daa4/source/100x100bb.jpg", "collectionPrice":9.99, "trackPrice":1.29, "releaseDate":"1993-09-21T12:00:00Z", "collectionExplicitness":"notExplicit", "trackExplicitness":"notExplicit", "discCount":1, "discNumber":1, "trackCount":12, "trackNumber":10, "trackTimeMillis":291560, "country":"USA", "currency":"USD", "primaryGenreName":"Alternative", "isStreamable":true},
{"wrapperType":"track", "kind":"song", "artistId":112018, "collectionId":1440858699, "trackId":1440859100, "artistName":"Nirvana", "collectionName":"In Utero (20th Anniversary) [Remastered]", "trackName":"Scentless Apprentice", "collectionCensoredName":"In Utero (20th Anniversary) [Remastered]", "trackCensoredName":"Scentless Apprentice", "artistViewUrl":"https://music.apple.com/us/artist/nirvana/112018?uo=4", "collectionViewUrl":"https://music.apple.com/us/album/scentless-apprentice/1440858699?i=1440859100&uo=4", "trackViewUrl":"https://music.apple.com/us/album/scentless-apprentice/1440858699?i=1440859100&uo=4",
"previewUrl":"https://audio-ssl.itunes.apple.com/itunes-assets/AudioPreview128/v4/17/46/27/174627ca-d913-3753-3e6e-ef73b885adb1/mzaf_8161014776980562544.plus.aac.p.m4a", "artworkUrl30":"https://is5-ssl.mzstatic.com/image/thumb/Music128/v4/ce/2a/e6/ce2ae6a7-d38c-0c95-7f81-2e958c27daa4/source/30x30bb.jpg", "artworkUrl60":"https://is5-ssl.mzstatic.com/image/thumb/Music128/v4/ce/2a/e6/ce2ae6a7-d38c-0c95-7f81-2e958c27daa4/source/60x60bb.jpg", "artworkUrl100":"https://is5-ssl.mzstatic.com/image/thumb/Music128/v4/ce/2a/e6/ce2ae6a7-d38c-0c95-7f81-2e958c27daa4/source/100x100bb.jpg", "collectionPrice":9.99, "trackPrice":1.29, "releaseDate":"1993-09-21T12:00:00Z", "collectionExplicitness":"notExplicit", "trackExplicitness":"notExplicit", "discCount":1, "discNumber":1, "trackCount":12, "trackNumber":2, "trackTimeMillis":228080, "country":"USA", "currency":"USD", "primaryGenreName":"Alternative", "isStreamable":true},
{"wrapperType":"track", "kind":"song", "artistId":112018, "collectionId":1440858699, "trackId":1440858845, "artistName":"Nirvana", "collectionName":"In Utero (20th Anniversary) [Remastered]", "trackName":"Serve the Servants", "collectionCensoredName":"In Utero (20th Anniversary) [Remastered]", "trackCensoredName":"Serve the Servants", "artistViewUrl":"https://music.apple.com/us/artist/nirvana/112018?uo=4", "collectionViewUrl":"https://music.apple.com/us/album/serve-the-servants/1440858699?i=1440858845&uo=4", "trackViewUrl":"https://music.apple.com/us/album/serve-the-servants/1440858699?i=1440858845&uo=4",
"previewUrl":"https://audio-ssl.itunes.apple.com/itunes-assets/AudioPreview128/v4/e8/32/ce/e832ce94-876c-1139-a6de-ed6302202f06/mzaf_1425756362276976810.plus.aac.p.m4a", "artworkUrl30":"https://is5-ssl.mzstatic.com/image/thumb/Music128/v4/ce/2a/e6/ce2ae6a7-d38c-0c95-7f81-2e958c27daa4/source/30x30bb.jpg", "artworkUrl60":"https://is5-ssl.mzstatic.com/image/thumb/Music128/v4/ce/2a/e6/ce2ae6a7-d38c-0c95-7f81-2e958c27daa4/source/60x60bb.jpg", "artworkUrl100":"https://is5-ssl.mzstatic.com/image/thumb/Music128/v4/ce/2a/e6/ce2ae6a7-d38c-0c95-7f81-2e958c27daa4/source/100x100bb.jpg", "collectionPrice":9.99, "trackPrice":1.29, "releaseDate":"1993-09-21T12:00:00Z", "collectionExplicitness":"notExplicit", "trackExplicitness":"notExplicit", "discCount":1, "discNumber":1, "trackCount":12, "trackNumber":1, "trackTimeMillis":217200, "country":"USA", "currency":"USD", "primaryGenreName":"Alternative", "isStreamable":true},
{"wrapperType":"track", "kind":"song", "artistId":112018, "collectionId":1440858699, "trackId":1440859118, "artistName":"Nirvana", "collectionName":"In Utero (20th Anniversary) [Remastered]", "trackName":"Frances Farmer Will Have Her Revenge On Seattle", "collectionCensoredName":"In Utero (20th Anniversary) [Remastered]", "trackCensoredName":"Frances Farmer Will Have Her Revenge On Seattle", "artistViewUrl":"https://music.apple.com/us/artist/nirvana/112018?uo=4", "collectionViewUrl":"https://music.apple.com/us/album/frances-farmer-will-have-her-revenge-on-seattle/1440858699?i=1440859118&uo=4", "trackViewUrl":"https://music.apple.com/us/album/frances-farmer-will-have-her-revenge-on-seattle/1440858699?i=1440859118&uo=4",
"previewUrl":"https://audio-ssl.itunes.apple.com/itunes-assets/AudioPreview118/v4/ad/88/b6/ad88b65a-a3f3-6071-b52b-6048a0a445e8/mzaf_6173055565105133842.plus.aac.p.m4a", "artworkUrl30":"https://is5-ssl.mzstatic.com/image/thumb/Music128/v4/ce/2a/e6/ce2ae6a7-d38c-0c95-7f81-2e958c27daa4/source/30x30bb.jpg", "artworkUrl60":"https://is5-ssl.mzstatic.com/image/thumb/Music128/v4/ce/2a/e6/ce2ae6a7-d38c-0c95-7f81-2e958c27daa4/source/60x60bb.jpg", "artworkUrl100":"https://is5-ssl.mzstatic.com/image/thumb/Music128/v4/ce/2a/e6/ce2ae6a7-d38c-0c95-7f81-2e958c27daa4/source/100x100bb.jpg", "collectionPrice":9.99, "trackPrice":1.29, "releaseDate":"1993-09-21T12:00:00Z", "collectionExplicitness":"notExplicit", "trackExplicitness":"notExplicit", "discCount":1, "discNumber":1, "trackCount":12, "trackNumber":5, "trackTimeMillis":250133, "country":"USA", "currency":"USD", "primaryGenreName":"Alternative", "isStreamable":true},
{"wrapperType":"track", "kind":"song", "artistId":112018, "collectionId":1440858699, "trackId":1440859484, "artistName":"Nirvana", "collectionName":"In Utero (20th Anniversary) [Remastered]", "trackName":"Milk It", "collectionCensoredName":"In Utero (20th Anniversary) [Remastered]", "trackCensoredName":"Milk It", "artistViewUrl":"https://music.apple.com/us/artist/nirvana/112018?uo=4", "collectionViewUrl":"https://music.apple.com/us/album/milk-it/1440858699?i=1440859484&uo=4", "trackViewUrl":"https://music.apple.com/us/album/milk-it/1440858699?i=1440859484&uo=4",
"previewUrl":"https://audio-ssl.itunes.apple.com/itunes-assets/AudioPreview128/v4/19/08/00/1908002f-b00e-58b9-a7d6-cb27d801447f/mzaf_2794709778402728803.plus.aac.p.m4a", "artworkUrl30":"https://is5-ssl.mzstatic.com/image/thumb/Music128/v4/ce/2a/e6/ce2ae6a7-d38c-0c95-7f81-2e958c27daa4/source/30x30bb.jpg", "artworkUrl60":"https://is5-ssl.mzstatic.com/image/thumb/Music128/v4/ce/2a/e6/ce2ae6a7-d38c-0c95-7f81-2e958c27daa4/source/60x60bb.jpg", "artworkUrl100":"https://is5-ssl.mzstatic.com/image/thumb/Music128/v4/ce/2a/e6/ce2ae6a7-d38c-0c95-7f81-2e958c27daa4/source/100x100bb.jpg", "collectionPrice":9.99, "trackPrice":1.29, "releaseDate":"1993-09-21T12:00:00Z", "collectionExplicitness":"notExplicit", "trackExplicitness":"notExplicit", "discCount":1, "discNumber":1, "trackCount":12, "trackNumber":8, "trackTimeMillis":234773, "country":"USA", "currency":"USD", "primaryGenreName":"Alternative", "isStreamable":true},
{"wrapperType":"track", "kind":"song", "artistId":112018, "collectionId":1440858699, "trackId":1440859386, "artistName":"Nirvana", "collectionName":"In Utero (20th Anniversary) [Remastered]", "trackName":"Very Ape", "collectionCensoredName":"In Utero (20th Anniversary) [Remastered]", "trackCensoredName":"Very Ape", "artistViewUrl":"https://music.apple.com/us/artist/nirvana/112018?uo=4", "collectionViewUrl":"https://music.apple.com/us/album/very-ape/1440858699?i=1440859386&uo=4", "trackViewUrl":"https://music.apple.com/us/album/very-ape/1440858699?i=1440859386&uo=4",
"previewUrl":"https://audio-ssl.itunes.apple.com/itunes-assets/AudioPreview118/v4/61/0e/1c/610e1c8a-a583-e07f-90d6-a9eb1d15b745/mzaf_3810142171756969067.plus.aac.p.m4a", "artworkUrl30":"https://is5-ssl.mzstatic.com/image/thumb/Music128/v4/ce/2a/e6/ce2ae6a7-d38c-0c95-7f81-2e958c27daa4/source/30x30bb.jpg", "artworkUrl60":"https://is5-ssl.mzstatic.com/image/thumb/Music128/v4/ce/2a/e6/ce2ae6a7-d38c-0c95-7f81-2e958c27daa4/source/60x60bb.jpg", "artworkUrl100":"https://is5-ssl.mzstatic.com/image/thumb/Music128/v4/ce/2a/e6/ce2ae6a7-d38c-0c95-7f81-2e958c27daa4/source/100x100bb.jpg", "collectionPrice":9.99, "trackPrice":1.29, "releaseDate":"1993-09-21T12:00:00Z", "collectionExplicitness":"notExplicit", "trackExplicitness":"notExplicit", "discCount":1, "discNumber":1, "trackCount":12, "trackNumber":7, "trackTimeMillis":115733, "country":"USA", "currency":"USD", "primaryGenreName":"Alternative", "isStreamable":true},
{"wrapperType":"track", "kind":"song", "artistId":112018, "collectionId":1440858699, "trackId":1440859509, "artistName":"Nirvana", "collectionName":"In Utero (20th Anniversary) [Remastered]", "trackName":"Tourette's", "collectionCensoredName":"In Utero (20th Anniversary) [Remastered]", "trackCensoredName":"Tourette's", "artistViewUrl":"https://music.apple.com/us/artist/nirvana/112018?uo=4", "collectionViewUrl":"https://music.apple.com/us/album/tourettes/1440858699?i=1440859509&uo=4", "trackViewUrl":"https://music.apple.com/us/album/tourettes/1440858699?i=1440859509&uo=4",
"previewUrl":"https://audio-ssl.itunes.apple.com/itunes-assets/AudioPreview118/v4/a7/e7/81/a7e781db-88fc-dcc8-f49d-475da0d601fe/mzaf_4333751926371973647.plus.aac.p.m4a", "artworkUrl30":"https://is5-ssl.mzstatic.com/image/thumb/Music128/v4/ce/2a/e6/ce2ae6a7-d38c-0c95-7f81-2e958c27daa4/source/30x30bb.jpg", "artworkUrl60":"https://is5-ssl.mzstatic.com/image/thumb/Music128/v4/ce/2a/e6/ce2ae6a7-d38c-0c95-7f81-2e958c27daa4/source/60x60bb.jpg", "artworkUrl100":"https://is5-ssl.mzstatic.com/image/thumb/Music128/v4/ce/2a/e6/ce2ae6a7-d38c-0c95-7f81-2e958c27daa4/source/100x100bb.jpg", "collectionPrice":9.99, "trackPrice":1.29, "releaseDate":"1993-09-21T12:00:00Z", "collectionExplicitness":"notExplicit", "trackExplicitness":"notExplicit", "discCount":1, "discNumber":1, "trackCount":12, "trackNumber":11, "trackTimeMillis":95387, "country":"USA", "currency":"USD", "primaryGenreName":"Alternative", "isStreamable":true},
{"wrapperType":"track", "kind":"song", "artistId":112018, "collectionId":1440875565, "trackId":1440877347, "artistName":"Nirvana", "collectionName":"In Utero (20th Anniversary Deluxe Edition)", "trackName":"All Apologies", "collectionCensoredName":"In Utero (20th Anniversary Deluxe Edition)", "trackCensoredName":"All Apologies (Steve Albini 1993 Mix)", "artistViewUrl":"https://music.apple.com/us/artist/nirvana/112018?uo=4", "collectionViewUrl":"https://music.apple.com/us/album/all-apologies-steve-albini-1993-mix/1440875565?i=1440877347&uo=4", "trackViewUrl":"https://music.apple.com/us/album/all-apologies-steve-albini-1993-mix/1440875565?i=1440877347&uo=4",
"previewUrl":"https://audio-ssl.itunes.apple.com/itunes-assets/AudioPreview128/v4/4a/61/89/4a618920-3269-5eaf-78e7-27345ed72ce6/mzaf_8396028250586840902.plus.aac.p.m4a", "artworkUrl30":"https://is1-ssl.mzstatic.com/image/thumb/Music118/v4/bc/05/8d/bc058d3b-1ff9-4c32-2c46-60ff88234d19/source/30x30bb.jpg", "artworkUrl60":"https://is1-ssl.mzstatic.com/image/thumb/Music118/v4/bc/05/8d/bc058d3b-1ff9-4c32-2c46-60ff88234d19/source/60x60bb.jpg", "artworkUrl100":"https://is1-ssl.mzstatic.com/image/thumb/Music118/v4/bc/05/8d/bc058d3b-1ff9-4c32-2c46-60ff88234d19/source/100x100bb.jpg", "collectionPrice":19.99, "trackPrice":1.29, "releaseDate":"1993-09-21T12:00:00Z", "collectionExplicitness":"notExplicit", "trackExplicitness":"notExplicit", "discCount":2, "discNumber":1, "trackCount":20, "trackNumber":20, "trackTimeMillis":232947, "country":"USA", "currency":"USD", "primaryGenreName":"Alternative", "isStreamable":true},
{"wrapperType":"track", "kind":"song", "artistId":112018, "collectionId":1440875565, "trackId":1440877336, "artistName":"Nirvana", "collectionName":"In Utero (20th Anniversary Deluxe Edition)", "trackName":"Heart-Shaped Box", "collectionCensoredName":"In Utero (20th Anniversary Deluxe Edition)", "trackCensoredName":"Heart-Shaped Box (Steve Albini 1993 Mix)", "artistViewUrl":"https://music.apple.com/us/artist/nirvana/112018?uo=4", "collectionViewUrl":"https://music.apple.com/us/album/heart-shaped-box-steve-albini-1993-mix/1440875565?i=1440877336&uo=4", "trackViewUrl":"https://music.apple.com/us/album/heart-shaped-box-steve-albini-1993-mix/1440875565?i=1440877336&uo=4",
"previewUrl":"https://audio-ssl.itunes.apple.com/itunes-assets/AudioPreview128/v4/00/44/95/0044950f-0687-5d38-2b8b-aad0d42a1b46/mzaf_3392266229659450088.plus.aac.p.m4a", "artworkUrl30":"https://is1-ssl.mzstatic.com/image/thumb/Music118/v4/bc/05/8d/bc058d3b-1ff9-4c32-2c46-60ff88234d19/source/30x30bb.jpg", "artworkUrl60":"https://is1-ssl.mzstatic.com/image/thumb/Music118/v4/bc/05/8d/bc058d3b-1ff9-4c32-2c46-60ff88234d19/source/60x60bb.jpg", "artworkUrl100":"https://is1-ssl.mzstatic.com/image/thumb/Music118/v4/bc/05/8d/bc058d3b-1ff9-4c32-2c46-60ff88234d19/source/100x100bb.jpg", "collectionPrice":19.99, "trackPrice":1.29, "releaseDate":"1993-09-21T12:00:00Z", "collectionExplicitness":"notExplicit", "trackExplicitness":"notExplicit", "discCount":2, "discNumber":1, "trackCount":20, "trackNumber":19, "trackTimeMillis":281893, "country":"USA", "currency":"USD", "primaryGenreName":"Alternative", "isStreamable":true},
{"wrapperType":"track", "kind":"song", "artistId":308345498, "collectionId":308345440, "trackId":308345539, "artistName":"Kells", "collectionName":"Lueurs", "trackName":"In utero", "collectionCensoredName":"Lueurs", "trackCensoredName":"In utero", "artistViewUrl":"https://music.apple.com/us/artist/kells/308345498?uo=4", "collectionViewUrl":"https://music.apple.com/us/album/in-utero/308345440?i=308345539&uo=4", "trackViewUrl":"https://music.apple.com/us/album/in-utero/308345440?i=308345539&uo=4", "previewUrl":"https://audio-ssl.itunes.apple.com/itunes-assets/Music/b9/6d/cc/mzm.ydaoahqv.aac.p.m4a", "artworkUrl30":"https://is1-ssl.mzstatic.com/image/thumb/Music/v4/17/58/d8/1758d85c-ce46-e742-8a70-bf4711b37629/source/30x30bb.jpg", "artworkUrl60":"https://is1-ssl.mzstatic.com/image/thumb/Music/v4/17/58/d8/1758d85c-ce46-e742-8a70-bf4711b37629/source/60x60bb.jpg", "artworkUrl100":"https://is1-ssl.mzstatic.com/image/thumb/Music/v4/17/58/d8/1758d85c-ce46-e742-8a70-bf4711b37629/source/100x100bb.jpg", "collectionPrice":10.99, "trackPrice":0.99, "releaseDate":"2009-02-20T12:00:00Z", "collectionExplicitness":"notExplicit", "trackExplicitness":"notExplicit", "discCount":1, "discNumber":1, "trackCount":13, "trackNumber":5, "trackTimeMillis":213040, "country":"USA", "currency":"USD", "primaryGenreName":"Rock", "isStreamable":true},
{"wrapperType":"track", "kind":"song", "artistId":112018, "collectionId":1440875565, "trackId":1440877654, "artistName":"Nirvana", "collectionName":"In Utero (20th Anniversary Deluxe Edition)", "trackName":"Rape Me", "collectionCensoredName":"In Utero (20th Anniversary Deluxe Edition)", "trackCensoredName":"Rape Me (2013 Mix)", "artistViewUrl":"https://music.apple.com/us/artist/nirvana/112018?uo=4", "collectionViewUrl":"https://music.apple.com/us/album/rape-me-2013-mix/1440875565?i=1440877654&uo=4", "trackViewUrl":"https://music.apple.com/us/album/rape-me-2013-mix/1440875565?i=1440877654&uo=4",
"previewUrl":"https://audio-ssl.itunes.apple.com/itunes-assets/AudioPreview128/v4/b1/0c/96/b10c96b6-e826-1351-2811-f7ba5f538ce2/mzaf_8060940515959475689.plus.aac.p.m4a", "artworkUrl30":"https://is1-ssl.mzstatic.com/image/thumb/Music118/v4/bc/05/8d/bc058d3b-1ff9-4c32-2c46-60ff88234d19/source/30x30bb.jpg", "artworkUrl60":"https://is1-ssl.mzstatic.com/image/thumb/Music118/v4/bc/05/8d/bc058d3b-1ff9-4c32-2c46-60ff88234d19/source/60x60bb.jpg", "artworkUrl100":"https://is1-ssl.mzstatic.com/image/thumb/Music118/v4/bc/05/8d/bc058d3b-1ff9-4c32-2c46-60ff88234d19/source/100x100bb.jpg", "collectionPrice":19.99, "trackPrice":1.29, "releaseDate":"1993-09-21T12:00:00Z", "collectionExplicitness":"notExplicit", "trackExplicitness":"notExplicit", "discCount":2, "discNumber":2, "trackCount":23, "trackNumber":4, "trackTimeMillis":169293, "country":"USA", "currency":"USD", "primaryGenreName":"Alternative", "isStreamable":true},
{"wrapperType":"track", "kind":"song", "artistId":112018, "collectionId":1440875565, "trackId":1440876924, "artistName":"Nirvana", "collectionName":"In Utero (20th Anniversary Deluxe Edition)", "trackName":"Moist Vagina", "collectionCensoredName":"In Utero (20th Anniversary Deluxe Edition)", "trackCensoredName":"Moist Vagina (2013 Mix)", "artistViewUrl":"https://music.apple.com/us/artist/nirvana/112018?uo=4", "collectionViewUrl":"https://music.apple.com/us/album/moist-vagina-2013-mix/1440875565?i=1440876924&uo=4", "trackViewUrl":"https://music.apple.com/us/album/moist-vagina-2013-mix/1440875565?i=1440876924&uo=4",
"previewUrl":"https://audio-ssl.itunes.apple.com/itunes-assets/AudioPreview128/v4/cf/83/de/cf83dedb-0739-9c69-6152-fb6e76a81c92/mzaf_2576631574877691894.plus.aac.p.m4a", "artworkUrl30":"https://is1-ssl.mzstatic.com/image/thumb/Music118/v4/bc/05/8d/bc058d3b-1ff9-4c32-2c46-60ff88234d19/source/30x30bb.jpg", "artworkUrl60":"https://is1-ssl.mzstatic.com/image/thumb/Music118/v4/bc/05/8d/bc058d3b-1ff9-4c32-2c46-60ff88234d19/source/60x60bb.jpg", "artworkUrl100":"https://is1-ssl.mzstatic.com/image/thumb/Music118/v4/bc/05/8d/bc058d3b-1ff9-4c32-2c46-60ff88234d19/source/100x100bb.jpg", "collectionPrice":19.99, "trackPrice":1.29, "releaseDate":"1993-09-21T12:00:00Z", "collectionExplicitness":"notExplicit", "trackExplicitness":"notExplicit", "discCount":2, "discNumber":1, "trackCount":20, "trackNumber":15, "trackTimeMillis":213427, "country":"USA", "currency":"USD", "primaryGenreName":"Alternative", "isStreamable":true},
{"wrapperType":"track", "kind":"song", "artistId":112018, "collectionId":1440875565, "trackId":1440877828, "artistName":"Nirvana", "collectionName":"In Utero (20th Anniversary Deluxe Edition)", "trackName":"Dumb", "collectionCensoredName":"In Utero (20th Anniversary Deluxe Edition)", "trackCensoredName":"Dumb (2013 Mix)", "artistViewUrl":"https://music.apple.com/us/artist/nirvana/112018?uo=4", "collectionViewUrl":"https://music.apple.com/us/album/dumb-2013-mix/1440875565?i=1440877828&uo=4", "trackViewUrl":"https://music.apple.com/us/album/dumb-2013-mix/1440875565?i=1440877828&uo=4",
"previewUrl":"https://audio-ssl.itunes.apple.com/itunes-assets/AudioPreview128/v4/f3/fd/e2/f3fde217-faf4-9444-7015-374475b6b2d9/mzaf_1360160689365337503.plus.aac.p.m4a", "artworkUrl30":"https://is1-ssl.mzstatic.com/image/thumb/Music118/v4/bc/05/8d/bc058d3b-1ff9-4c32-2c46-60ff88234d19/source/30x30bb.jpg", "artworkUrl60":"https://is1-ssl.mzstatic.com/image/thumb/Music118/v4/bc/05/8d/bc058d3b-1ff9-4c32-2c46-60ff88234d19/source/60x60bb.jpg", "artworkUrl100":"https://is1-ssl.mzstatic.com/image/thumb/Music118/v4/bc/05/8d/bc058d3b-1ff9-4c32-2c46-60ff88234d19/source/100x100bb.jpg", "collectionPrice":19.99, "trackPrice":1.29, "releaseDate":"1993-09-21T12:00:00Z", "collectionExplicitness":"notExplicit", "trackExplicitness":"notExplicit", "discCount":2, "discNumber":2, "trackCount":23, "trackNumber":6, "trackTimeMillis":152347, "country":"USA", "currency":"USD", "primaryGenreName":"Alternative", "isStreamable":true}]
}


